Lab 3/nr_divider_tb.vcd
$date
	Sun Mar  8 08:51:43 2026
$end
$version
	Icarus Verilog
$end
$timescale
	1ps
$end
$scope module tb_nr_divider $end
$var wire 1 ! valid_out $end
$var wire 18 " quotient_Y [17:0] $end
$var reg 1 # clk $end
$var reg 18 $ dividend_A [17:0] $end
$var reg 18 % divisor_D [17:0] $end
$var reg 1 & enable $end
$var reg 1 ' rst_n $end
$var real 1 ( real_y $end
$scope function q2_16_to_real $end
$var reg 18 ) val [17:0] $end
$upscope $end
$scope function real_to_q2_16 $end
$var real 1 * val $end
$upscope $end
$scope module dut $end
$var wire 1 # clk $end
$var wire 18 + dividend_A [17:0] $end
$var wire 18 , divisor_D [17:0] $end
$var wire 1 & enable $end
$var wire 1 ' rst_n $end
$var wire 36 - x1_d_mult [35:0] $end
$var wire 18 . x1_d [17:0] $end
$var wire 36 / x0_d_mult [35:0] $end
$var wire 18 0 x0_d [17:0] $end
$var wire 36 1 stg3_X2_mult [35:0] $end
$var wire 36 2 stg2_X1_mult [35:0] $end
$var wire 36 3 stg1_D_mult [35:0] $end
$var wire 36 4 final_mult [35:0] $end
$var parameter 18 5 CONST_2 $end
$var parameter 18 6 C_32_17 $end
$var parameter 18 7 C_48_17 $end
$var reg 18 8 quotient_Y [17:0] $end
$var reg 18 9 stg1_A [17:0] $end
$var reg 18 : stg1_D [17:0] $end
$var reg 18 ; stg1_X0 [17:0] $end
$var reg 1 < stg1_valid $end
$var reg 18 = stg2_A [17:0] $end
$var reg 18 > stg2_D [17:0] $end
$var reg 18 ? stg2_X1 [17:0] $end
$var reg 1 @ stg2_valid $end
$var reg 18 A stg3_A [17:0] $end
$var reg 18 B stg3_X2 [17:0] $end
$var reg 1 C stg3_valid $end
$var reg 1 ! valid_out $end
$upscope $end
$upscope $end
$enddefinitions $end
$comment Show the parameter values. $end
$dumpall
b10110100101101000 7
b1111000011110001 6
b10000000000000000 5
$end
#0
$dumpvars
0C
b0 B
b0 A
0@
b0 ?
b0 >
b0 =
0<
b0 ;
b0 :
b0 9
b0 8
b0 4
b0 3
b0 2
b0 1
b0 0
b0 /
b0 .
b0 -
b0 ,
b0 +
r0 *
bx )
r0 (
0'
0&
b0 %
b0 $
0#
b0 "
0!
$end
#5000
1#
#10000
0#
#15000
1#
#20000
0#
1'
#25000
1#
#30000
0#
b111100001111000100000000000000 3
b100000000000000 %
b100000000000000 ,
b10000000000000 $
b10000000000000 +
r0.5 *
1&
#35000
b111100001111000 0
1<
b111100001111000000000000000000 /
b1111111100011101000111110000000 2
b1111000011110000 ;
b100000000000000 :
b10000000000000 9
1#
#40000
0#
b1100000011000000000011000000110 3
b110011001100110 %
b110011001100110 ,
b110000000000000 $
b110000000000000 +
r0.8 *
#45000
b111111110001110 .
b1000011011101100 0
1@
b111111110001110100000000000000 -
b10000000000000000001101011101010 1
b1111111100011101 ?
b100000000000000 >
b10000000000000 =
b1001111110001001001010100100000 2
b1010100010101000 ;
b1000011011101100010001011110000 /
b110011001100110 :
b110000000000000 9
1#
#50000
0#
b1001011010010110101000000000000 3
b101000000000000 %
b101000000000000 ,
b111100000000000000 $
b111100000000000000 +
r0.625 *
#55000
b111111110100000 .
b1000001111000011 0
1C
b100000000000000000000000000000 4
b10000000000000000 B
b10000000000000 A
b1010000000000000101001101100000 1
b1001111110001001 ?
b111111110100000010011010010110 -
b110011001100110 >
b110000000000000 =
b1100110010011111111010000001010 2
b1101001011010010 ;
b1000001111000011010000000000000 /
b101000000000000 :
b111100000000000000 9
1#
#60000
0#
b1110010011100101101100111111010 3
b111100110011010 %
b111100110011010 ,
b1010000000000000 $
b1010000000000000 +
r0.95 *
#65000
b111111111100011 .
b111110111100011 0
1!
b100000000000000 "
b100000000000000 8
b1010000000000000 B
b111100000000000000000000000000 4
b110000000000000 A
b1100110011001101010111000000011 1
b1100110010011111 ?
b111111111100011011000000000000 -
b101000000000000 >
b111100000000000000 =
b1000011010110011000100011010111 2
b1000010010000011 ;
b111110111100011010000111001110 /
b111100110011010 :
b1010000000000000 9
1#
#70000
0#
b0 3
b0 %
b0 ,
b0 $
b0 +
0&
#75000
b111111111110111 .
b111100000000000 "
b111100000000000 8
b1100110011001101 B
b111111001100110011001100000000000000 4
b111100000000000000 A
b1000011010111100011110001001011 1
b1000011010110011 ?
b111111111110111010001010101110 -
b111100110011010 >
b1010000000000000 =
0<
r0.5 (
b100000000000000 )
1#
#80000
0#
#85000
b111001100110011001 "
b111001100110011001 8
b1000011010111100 B
b1010100001101011000000000000000 4
b1010000000000000 A
0@
r0.9375 (
b111100000000000 )
1#
#90000
0#
#95000
b1010100001101011 "
b1010100001101011 8
0C
r-0.800018310546875 (
b111001100110011001 )
1#
#100000
0#
#105000
0!
r1.315765380859375 (
b1010100001101011 )
1#
